{
  "project_info": {
    "project_number": "403482466445",
    "firebase_url": "https://shorashim-he.firebaseio.com",
    "project_id": "shorashim-he",
    "storage_bucket": "shorashim-he.appspot.com"
  },
  "client": [
    {
      "client_info": {
        "mobilesdk_app_id": "1:403482466445:android:5a64e1b559c1a82a",
        "android_client_info": {
          "package_name": "com.E.B.SHORASHIM"
        }
      },
      "oauth_client": [
        {
          "client_id": "403482466445-75bd1ckup1vedrd4su98k3a7d0p0kd7s.apps.googleusercontent.com",
          "client_type": 1,
          "android_info": {
            "package_name": "com.E.B.SHORASHIM",
            "certificate_hash": "9b5d5a6230110ce371657e66ea5041023a1f1b8f"
          }
        },
        {
          "client_id": "403482466445-ivjfacoj28m8ktdk2380j8gohffbhmep.apps.googleusercontent.com",
          "client_type": 3
        }
      ],
      "api_key": [
        {
          "current_key": "AIzaSyCXOMSZcVXMV0nM-GXKc3ounGvM1BNuYCo"
        }
      ],
      "services": {
        "analytics_service": {
          "status": 1
        },
        "appinvite_service": {
          "status": 2,
          "other_platform_oauth_client": [
            {
              "client_id": "403482466445-ivjfacoj28m8ktdk2380j8gohffbhmep.apps.googleusercontent.com",
              "client_type": 3
            }
          ]
        },
        "ads_service": {
          "status": 2
        }
      }
    }
  ],
  "configuration_version": "1"
}